Lab3
…
## Warning: package 'ggplot2' was built under R version 3.5.3

data <- readxl::read_xls('GSS.xls')

## Warning in read_fun(path = enc2native(normalizePath(path)), sheet_i = sheet, :
## Expecting numeric in A64817 / R64817C1: got 'Source'

## Warning in read_fun(path = enc2native(normalizePath(path)), sheet_i = sheet, : Expecting numeric in B64817 / R64817C2: got 'Data collection: General Social Survey
## Case Selection: all cases'

names(data) <- c("year", "id", "num_hours", "marital_status", "sex", "affiliation", "happiness", "ballot")
print(data)

## # A tibble: 64,816 x 8
##     year    id num_hours   marital_status sex   affiliation  happiness  ballot  
##    <dbl> <dbl> <chr>       <chr>          <chr> <chr>        <chr>      <chr>   
##  1  1972     1 Not applic~ Never married  Fema~ Ind,near dem Not too h~ Not app~
##  2  1972     2 Not applic~ Married        Male  Not str dem~ Not too h~ Not app~
##  3  1972     3 Not applic~ Married        Fema~ Independent  Pretty ha~ Not app~
##  4  1972     4 Not applic~ Married        Fema~ Not str dem~ Not too h~ Not app~
##  5  1972     5 Not applic~ Married        Fema~ Strong demo~ Pretty ha~ Not app~
##  6  1972     6 Not applic~ Never married  Male  Ind,near dem Pretty ha~ Not app~
##  7  1972     7 Not applic~ Divorced       Male  Ind,near dem Not too h~ Not app~
##  8  1972     8 Not applic~ Never married  Male  Ind,near dem Not too h~ Not app~
##  9  1972     9 Not applic~ Never married  Fema~ Strong demo~ Pretty ha~ Not app~
## 10  1972    10 Not applic~ Married        Fema~ Strong demo~ Pretty ha~ Not app~
## # ... with 64,806 more rows
…
